n,cpu_time_ms,jit_compilation_time_ms,jit_compiled_il_byes, jit_method_count, compilation_time_divied_by_cpu_time
1,689.9999,6963.391,480426,7164,10.092542767035184
2,850.0,7964.9961,646918,9227,9.370583647058824
3,1290.0,9452.2294,1018119,14811,7.327309612403101
4,1480.0,10266.6277,1247945,18245,6.936910608108107
5,1629.9999,11240.2434,1411964,21352,6.895855269684372
6,1710.0,11846.8499,1455715,22152,6.927982397660818
7,1720.0,11846.8499,1455715,22152,6.887703430232557
8,1750.0,12041.8535,1461925,22210,6.881059142857143
9,1750.0,12139.4989,1464049,22265,6.936856514285714
10,1770.0,12153.7552,1478147,22393,6.866528361581921
11,1780.0,12153.7552,1478147,22393,6.827952359550562
12,1810.0,12350.609,1491001,22497,6.823540883977901
13,1810.0,12350.609,1491001,22497,6.823540883977901
14,1870.0,13041.6667,1520578,22939,6.974153315508021
15,1940.0,13662.2938,1558425,23378,7.042419484536082
16,1950.0,13662.9894,1558451,23379,7.006661230769231
17,1970.0,13662.9894,1558451,23379,6.935527614213198
18,1970.0,13760.3146,1559056,23389,6.984931269035533
19,2040.0,14665.7709,1581657,23697,7.189103382352941
20,2070.0,15364.7897,1598557,23903,7.422603719806763
21,2080.0,15364.7897,1598557,23903,7.386918124999999
22,2110.0,15364.7897,1598557,23903,7.281890853080569
23,2110.0,15364.7897,1598557,23903,7.281890853080569
24,2120.0,15563.3167,1606520,24005,7.341187122641509
25,2160.0,16566.9116,1619342,24174,7.669866481481481
26,2160.0,16567.4121,1619510,24175,7.670098194444445
27,2210.0,17272.3502,1634372,24370,7.815543076923078
28,2210.0,17272.3502,1634372,24370,7.815543076923078
29,2220.0,17372.9759,1635222,24379,7.825664819819821
30,2270.0,18075.3582,1662466,24650,7.962712863436122
31,2279.9999,18075.3582,1662466,24650,7.927789031920572
32,2300.0,18275.5333,1664494,24660,7.94588404347826
33,2300.0,18690.1278,1668099,24663,8.12614252173913
34,2350.0,19300.8063,1684616,24796,8.213109063829787
35,2350.0,19398.5521,1684655,24798,8.254703021276596
36,2430.0,20308.3492,1725421,25188,8.357345349794238
37,2509.9999,21024.4625,1779300,25708,8.376280214194432
38,2550.0,21723.1064,1808597,26134,8.51886525490196
39,2550.0,21723.1064,1808597,26134,8.51886525490196
40,2580.0,21928.4402,1822305,26259,8.499395426356589
41,2590.0,21928.606,1822344,26260,8.466643243243244
42,2590.0,21928.606,1822344,26260,8.466643243243244
43,2650.0,22431.3077,1848325,26595,8.464644415094341
44,2650.0,22431.3077,1848325,26595,8.464644415094341
45,2700.0,22557.7316,1864460,26708,8.354715407407408
46,2720.0,22758.8932,1870902,26767,8.367240147058823
47,2730.0,22859.1912,1872359,26768,8.37333010989011
48,2750.0,22957.572,1879334,26817,8.348208
49,2770.0,23067.1206,1885770,26843,8.32748036101083
50,2770.0,23068.3119,1886070,26846,8.327910433212997
51,2779.9999,23069.2615,1886871,26850,8.298295802096971
52,2800.0,23071.604,1887461,26857,8.239858571428572
53,2800.0,23071.604,1887461,26857,8.239858571428572
54,2800.0,23071.604,1887461,26857,8.239858571428572
55,2810.0,23071.8005,1887519,26859,8.210605160142348
56,2820.0,23166.1774,1888826,26874,8.214956524822695
57,2820.0,23166.1774,1888826,26874,8.214956524822695
58,2830.0,23166.1774,1888826,26874,8.185928409893993
59,2830.0,23166.5903,1888872,26875,8.186074310954064
60,2840.0,23167.3197,1889132,26876,8.157506936619718
61,2850.0,23169.9622,1889358,26882,8.129811298245615
62,2850.0,23169.9622,1889358,26882,8.129811298245615
63,2890.0,23666.2498,1901061,26963,8.189013771626298
64,2920.0,23973.8214,1906397,27001,8.210212808219179
65,2980.0,24877.2367,1926738,27146,8.34806600671141
66,3040.0,25486.0831,1946134,27278,8.383579967105263
67,3040.0,25486.0831,1946134,27278,8.383579967105263
68,3090.0,25788.4183,1955446,27445,8.34576644012945
69,3190.0,26701.4267,1995191,27887,8.370353197492163
70,3200.0,26795.3853,1997179,27906,8.373557906250001
71,3210.0,26795.6698,1997218,27908,8.347560685358255
72,3220.0,26799.2829,1998808,27922,8.322758664596273
73,3250.0,26915.4547,2009255,28014,8.281678369230768
74,3250.0,26915.6087,2009270,28016,8.281725753846153
75,3250.0,26915.6087,2009270,28016,8.281725753846153
76,3259.9999,26915.6087,2009270,28016,8.256321940377974
77,3259.9999,26915.6087,2009270,28016,8.256321940377974
78,3270.0,26915.9405,2009408,28017,8.231174464831804
79,3270.0,26915.9405,2009408,28017,8.231174464831804
80,3270.0,26915.9405,2009408,28017,8.231174464831804
81,3279.9999,27017.0561,2013308,28048,8.236907598686209
82,3290.0,27017.2378,2013365,28050,8.211926382978723
83,3290.0,27017.2378,2013365,28050,8.211926382978723
84,3290.0,27017.2378,2013365,28050,8.211926382978723
85,3300.0,27017.5318,2013456,28051,8.187130848484848
86,3300.0,27017.9022,2013547,28052,8.18724309090909
87,3350.0,27132.8964,2021223,28117,8.099372059701492
88,3350.0,27132.8964,2021223,28117,8.099372059701492
89,3350.0,27133.1026,2021242,28119,8.099433611940299
90,3360.0,27133.1026,2021242,28119,8.075328154761904
91,3360.0,27133.1026,2021242,28119,8.075328154761904
92,3360.0,27133.1026,2021242,28119,8.075328154761904
93,3370.0,27133.404,2021334,28123,8.051455192878338
94,3370.0,27133.404,2021334,28123,8.051455192878338
95,3380.0,27133.6562,2021448,28124,8.027708934911242
96,3380.0,27133.8865,2021492,28125,8.027777071005918
97,3390.0,27133.8865,2021492,28125,8.004096312684366
98,3390.0,27133.8865,2021492,28125,8.004096312684366
99,3400.0,27133.8865,2021492,28125,7.980554852941177
100,3400.0,27133.8865,2021492,28125,7.980554852941177
101,3410.0,27133.8865,2021492,28125,7.95715146627566
102,3410.0,27133.8865,2021492,28125,7.95715146627566
103,3410.0,27134.3004,2021541,28128,7.9572728445747805
104,3410.0,27134.4132,2021570,28129,7.957305923753665
105,3420.0,27136.9427,2022508,28138,7.934778567251461
106,3420.0,27136.9427,2022508,28138,7.934778567251461
107,3420.0,27136.9427,2022508,28138,7.934778567251461
108,3420.0,27136.9427,2022508,28138,7.934778567251461
109,3440.0,27136.9427,2022508,28138,7.88864613372093
110,3440.0,27136.9427,2022508,28138,7.88864613372093
111,3450.0,27137.1063,2022613,28139,7.8658279130434785
112,3450.0,27137.6726,2022901,28141,7.865992057971015
113,3450.0,27137.9457,2022961,28143,7.866071217391305
114,3450.0,27137.9457,2022961,28143,7.866071217391305
115,3460.0,27138.0375,2022978,28144,7.843363439306358
116,3460.0,27138.0375,2022978,28144,7.843363439306358
117,3460.0,27138.1887,2023003,28145,7.843407138728323
118,3470.0,27138.1887,2023003,28145,7.820803659942363
119,3480.0,27138.5593,2023056,28147,7.798436580459771
120,3480.0,27138.7965,2023170,28148,7.79850474137931
121,3480.0,27138.7965,2023170,28148,7.79850474137931
122,3490.0,27138.7965,2023170,28148,7.776159455587392
123,3490.0,27138.7965,2023170,28148,7.776159455587392
124,3510.0,27138.7965,2023170,28148,7.731850854700855
125,3510.0,27138.9484,2023289,28149,7.731894131054132
126,3510.0,27138.9484,2023289,28149,7.731894131054132
127,3510.0,27138.9484,2023289,28149,7.731894131054132
128,3520.0,27138.9484,2023289,28149,7.709928522727273
129,3520.0,27138.9484,2023289,28149,7.709928522727273
130,3530.0,27138.9484,2023289,28149,7.688087365439093
131,3530.0,27138.9484,2023289,28149,7.688087365439093
132,3530.0,27138.9484,2023289,28149,7.688087365439093
133,3530.0,27138.9484,2023289,28149,7.688087365439093
134,3550.0,27139.3576,2023359,28151,7.644889464788732
135,3550.0,27139.3576,2023359,28151,7.644889464788732
136,3550.0,27139.3576,2023359,28151,7.644889464788732
137,3550.0,27139.3576,2023359,28151,7.644889464788732
138,3550.0,27139.3576,2023359,28151,7.644889464788732
139,3560.0,27139.3576,2023359,28151,7.623415056179775
140,3570.0,27139.3576,2023359,28151,7.602060952380953
141,3570.0,27139.3576,2023359,28151,7.602060952380953
142,3580.0,27139.3576,2023359,28151,7.580826145251397
143,3580.0,27139.3576,2023359,28151,7.580826145251397
144,3590.0,27139.3576,2023359,28151,7.559709637883008
145,3590.0,27139.3576,2023359,28151,7.559709637883008
146,3590.0,27139.3576,2023359,28151,7.559709637883008
147,3590.0,27139.3576,2023359,28151,7.559709637883008
148,3600.0,27139.3576,2023359,28151,7.538710444444444
149,3600.0,27139.3576,2023359,28151,7.538710444444444
150,3610.0,27139.3576,2023359,28151,7.517827590027701
151,3610.0,27139.3576,2023359,28151,7.517827590027701
152,3630.0,27139.3576,2023359,28151,7.476407052341598
153,3650.0,27139.3576,2023359,28151,7.435440438356164
154,3670.0,27139.6727,2023383,28153,7.395006185286103
155,3690.0,27335.5408,2028145,28196,7.408005636856368
156,3690.0,27335.5408,2028145,28196,7.408005636856368
157,3690.0,27335.6953,2028189,28197,7.408047506775068
158,3700.0,27335.6953,2028189,28197,7.388025756756757
159,3700.0,27335.6953,2028189,28197,7.388025756756757
160,3700.0,27335.6953,2028189,28197,7.388025756756757
161,3710.0,27335.6953,2028189,28197,7.368111940700809
162,3710.0,27335.6953,2028189,28197,7.368111940700809
163,3710.0,27335.6953,2028189,28197,7.368111940700809
164,3720.0,27335.6953,2028189,28197,7.348305188172043
165,3720.0,27335.6953,2028189,28197,7.348305188172043
166,3720.0,27335.8638,2028217,28198,7.348350483870967
167,3730.0,27335.8638,2028217,28198,7.328649812332439
168,3730.0,27335.8638,2028217,28198,7.328649812332439
169,3740.0,27335.8638,2028217,28198,7.30905449197861
170,3750.0,27335.8638,2028217,28198,7.28956368
171,3750.0,27335.8638,2028217,28198,7.28956368
172,3750.0,27335.8638,2028217,28198,7.28956368
173,3760.0,27335.8638,2028217,28198,7.270176542553191
174,3760.0,27335.8638,2028217,28198,7.270176542553191
175,3770.0,27336.176,2028322,28199,7.250975066312997
176,3770.0,27336.176,2028322,28199,7.250975066312997
177,3780.0,27336.2547,2028330,28200,7.231813412698413
178,3790.0,27336.4209,2028390,28202,7.212775963060686
179,3790.0,27336.4209,2028390,28202,7.212775963060686
180,3790.0,27336.4209,2028390,28202,7.212775963060686
181,3790.0,27336.4209,2028390,28202,7.212775963060686
182,3800.0,27336.4209,2028390,28202,7.193794973684211
183,3800.0,27336.4209,2028390,28202,7.193794973684211
184,3800.0,27336.4209,2028390,28202,7.193794973684211
185,3810.0,27336.4209,2028390,28202,7.174913622047244
186,3810.0,27336.4209,2028390,28202,7.174913622047244
187,3810.0,27336.4209,2028390,28202,7.174913622047244
188,3820.0,27336.4209,2028390,28202,7.156131125654451
189,3820.0,27336.4209,2028390,28202,7.156131125654451
190,3820.0,27336.4209,2028390,28202,7.156131125654451
191,3830.0,27337.0042,2028678,28204,7.137599007832898
192,3830.0,27337.0042,2028678,28204,7.137599007832898
193,3840.0,27337.0042,2028678,28204,7.119011510416667
194,3840.0,27337.0042,2028678,28204,7.119011510416667
195,3850.0,27337.0042,2028678,28204,7.100520571428572
196,3850.0,27337.0042,2028678,28204,7.100520571428572
197,3860.0,27337.0042,2028678,28204,7.082125440414508
198,3860.0,27337.0042,2028678,28204,7.082125440414508
199,3870.0,27337.0042,2028678,28204,7.063825374677003
200,3870.0,27337.0042,2028678,28204,7.063825374677003
201,3870.0,27337.0042,2028678,28204,7.063825374677003
202,3870.0,27337.0042,2028678,28204,7.063825374677003
203,3880.0,27337.0042,2028678,28204,7.045619639175258
204,3880.0,27337.0042,2028678,28204,7.045619639175258
205,3890.0,27337.2,2028709,28205,7.027557840616967
206,3890.0,27337.2,2028709,28205,7.027557840616967
207,3900.0,27337.2,2028709,28205,7.009538461538462
208,3910.0,27337.2,2028709,28205,6.991611253196931
209,3910.0,27337.2,2028709,28205,6.991611253196931
210,3910.0,27337.2,2028709,28205,6.991611253196931
211,3910.0,27337.2,2028709,28205,6.991611253196931
212,3910.0,27337.2,2028709,28205,6.991611253196931
213,3920.0,27337.4372,2028773,28206,6.973836020408164
214,3920.0,27337.4372,2028773,28206,6.973836020408164
215,3930.0,27337.4372,2028773,28206,6.956090890585242
216,3930.0,27337.4372,2028773,28206,6.956090890585242
217,3960.0,27337.4372,2028773,28206,6.903393232323232
218,3960.0,27338.7735,2028987,28210,6.903730681818182
219,3970.0,27338.7735,2028987,28210,6.886340931989924
220,3970.0,27338.7735,2028987,28210,6.886340931989924
221,3970.0,27338.7735,2028987,28210,6.886340931989924
222,3970.0,27338.7735,2028987,28210,6.886340931989924
223,3980.0,27338.7735,2028987,28210,6.869038567839196
224,3990.0,27338.7735,2028987,28210,6.851822932330827
225,3990.0,27338.7735,2028987,28210,6.851822932330827
226,3990.0,27338.7735,2028987,28210,6.851822932330827
227,4000.0,27341.4184,2029409,28212,6.8353546
228,4000.0,27341.4184,2029409,28212,6.8353546
229,4010.0,27341.9619,2029450,28213,6.818444364089776
230,4010.0,27341.9619,2029450,28213,6.818444364089776
231,4010.0,27341.9619,2029450,28213,6.818444364089776
232,4019.9999,27341.9619,2029450,28213,6.801483228892618
233,4019.9999,27341.9619,2029450,28213,6.801483228892618
234,4030.0,27341.9619,2029450,28213,6.784605930521091
235,4040.0,27341.9619,2029450,28213,6.767812351485148
236,4040.0,27341.9619,2029450,28213,6.767812351485148
237,4040.0,27341.9619,2029450,28213,6.767812351485148
238,4050.0,27341.9619,2029450,28213,6.751101703703704
239,4050.0,27341.9619,2029450,28213,6.751101703703704
240,4050.0,27341.9619,2029450,28213,6.751101703703704
241,4050.0,27341.9619,2029450,28213,6.751101703703704
242,4059.9999,27342.4317,2029669,28215,6.734589254546534
243,4070.0,27342.4317,2029669,28215,6.718042186732187
244,4080.0,27342.4317,2029669,28215,6.701576397058823
245,4080.0,27342.4317,2029669,28215,6.701576397058823
246,4080.0,27342.4317,2029669,28215,6.701576397058823
247,4080.0,27342.4317,2029669,28215,6.701576397058823
248,4090.0,27342.4317,2029669,28215,6.685191124694377
249,4090.0,27342.4317,2029669,28215,6.685191124694377
250,4090.0,27342.4317,2029669,28215,6.685191124694377
251,4090.0,27342.4317,2029669,28215,6.685191124694377
252,4090.0,27342.4317,2029669,28215,6.685191124694377
253,4110.0,27342.9772,2029718,28216,6.652792506082726
254,4110.0,27342.9772,2029718,28216,6.652792506082726
255,4110.0,27343.9005,2029763,28217,6.653017153284671
256,4110.0,27343.9005,2029763,28217,6.653017153284671
257,4130.0,27343.9005,2029763,28217,6.620799152542372
258,4130.0,27343.9005,2029763,28217,6.620799152542372
259,4130.0,27343.9005,2029763,28217,6.620799152542372
260,4130.0,27343.9005,2029763,28217,6.620799152542372
261,4140.0,27343.9005,2029763,28217,6.604806884057971
262,4140.0,27343.9005,2029763,28217,6.604806884057971
263,4150.0,27343.9005,2029763,28217,6.588891686746988
264,4150.0,27343.9005,2029763,28217,6.588891686746988
265,4150.0,27343.9005,2029763,28217,6.588891686746988
266,4150.0,27343.9005,2029763,28217,6.588891686746988
267,4160.0,27343.9005,2029763,28217,6.573053004807692
268,4170.0,27343.9005,2029763,28217,6.557290287769784
269,4170.0,27343.9005,2029763,28217,6.557290287769784
270,4170.0,27343.9005,2029763,28217,6.557290287769784
271,4170.0,27343.9005,2029763,28217,6.557290287769784
272,4180.0,27343.9005,2029763,28217,6.541602990430622
273,4180.0,27343.9005,2029763,28217,6.541602990430622
274,4190.0,27343.9005,2029763,28217,6.525990572792363
275,4190.0,27343.9005,2029763,28217,6.525990572792363
276,4190.0,27343.9005,2029763,28217,6.525990572792363
277,4200.0,27343.9005,2029763,28217,6.5104525
278,4210.0,27343.9005,2029763,28217,6.494988242280285
279,4210.0,27343.9005,2029763,28217,6.494988242280285
280,4210.0,27343.9005,2029763,28217,6.494988242280285
281,4210.0,27343.9005,2029763,28217,6.494988242280285
282,4210.0,27343.9005,2029763,28217,6.494988242280285
283,4230.0,27343.9005,2029763,28217,6.464279078014185
284,4230.0,27343.9005,2029763,28217,6.464279078014185
285,4230.0,27343.9005,2029763,28217,6.464279078014185
286,4230.0,27343.9005,2029763,28217,6.464279078014185
287,4240.0,27344.0359,2029829,28218,6.449065070754717
288,4240.0,27344.0359,2029829,28218,6.449065070754717
289,4250.0,27344.0359,2029829,28218,6.4338908
290,4260.0,27344.0359,2029829,28218,6.418787769953052
291,4260.0,27344.0359,2029829,28218,6.418787769953052
292,4260.0,27344.0359,2029829,28218,6.418787769953052
