timestamp,rx_bytes,rx_packets,tx_packets,tx_bytes
1721940577,8914354,30587,29194,73625580
1721940578,8918918,30615,29219,73850843
1721940579,8919800,30620,29223,73851621
1721940580,8923443,30636,29240,73864257
1721940581,8923711,30638,29241,73864677
1721940582,8926771,30660,29258,73866854
1721940583,8932176,30688,29283,74100191
1721940584,8936259,30707,29302,74104269
1721940585,8937613,30723,29317,74114600
1721940586,8940884,30736,29328,74117972
1721940587,8942858,30746,29337,74119404
1721940589,8947422,30774,29363,74344697
1721940590,8948475,30781,29368,74345580
1721940591,8952106,30797,29384,74358253
1721940592,8952374,30799,29385,74358673
1721940593,8957914,30826,29408,74363405
1721940594,8960594,30849,29427,74594211
1721940595,8964479,30865,29441,74597923
1721940596,8965173,30871,29446,74606511
1721940597,8965964,30879,29451,74607328
1721940598,8970418,30894,29466,74611279
1721940599,8975596,30925,29496,74837003
1721940600,8976392,30935,29505,74837951
1721940601,8980419,30957,29525,74850885
1721940602,8980687,30959,29526,74851305
1721940603,8983747,30981,29543,74853482
1721940604,8989521,31012,29571,75087150
1721940605,8992858,31026,29585,75090738
1721940606,8993552,31032,29590,75099328
1721940607,8996757,31044,29602,75102766
1721940608,8998731,31054,29611,75104162
1721940609,9003843,31084,29638,75329715
1721940610,9004634,31092,29643,75330514
1721940611,9007808,31103,29654,75342741
1721940612,9009096,31116,29664,75344008
1721940613,9013550,31131,29679,75347959
1721940614,9017380,31163,29705,75579540
1721940615,9020656,31178,29720,75583007
1721940616,9022203,31195,29734,75592340
1721940617,9024722,31200,29739,75593425
1721940618,9027448,31218,29754,75597128
1721940619,9032103,31243,29779,75822383
1721940620,9033065,31253,29785,75823323
1721940621,9036239,31264,29796,75835516
1721940622,9037729,31278,29808,75837233
1721940623,9042183,31293,29823,75841220
1721940624,9046721,31327,29853,76073271
1721940625,9049682,31336,29862,76081870
1721940626,9052871,31348,29874,76085982
1721940627,9053368,31352,29877,76088256
1721940628,9057197,31366,29891,76090328
1721940629,9060652,31395,29918,76315508
1721940630,9064796,31420,29943,76328840
1721940631,9065277,31424,29946,76329326
1721940632,9075086,31499,30069,76339377
1721940633,9078151,31518,30099,76565691
1721940634,9084316,31549,30118,76578002
1721940635,9085142,31557,30125,76586725
1721940636,9085867,31564,30131,76587590
1721940637,9089468,31575,30142,76591035
1721940638,9094819,31606,30172,76816870
1721940639,9095701,31611,30176,76817648
1721940640,9096918,31623,30185,76826616
1721940641,9099666,31630,30192,76829555
1721940642,9101807,31647,30206,76831328
1721940643,9106635,31672,30230,77056619
1721940644,9111850,31697,30251,77069080
1721940645,9113270,31714,30267,77079478
1721940646,9116541,31727,30278,77082832
1721940647,9117662,31733,30283,77083758
1721940648,9123013,31764,30313,77309564
1721940649,9123895,31769,30317,77310342
1721940650,9127775,31788,30334,77324454
1721940651,9128043,31790,30335,77324874
1721940652,9132664,31812,30355,77329166
1721940653,9136197,31839,30378,77560480
1721940654,9140016,31854,30393,77564258
1721940655,9140710,31860,30398,77572811
1721940656,9141435,31867,30404,77573712
1721940657,9145036,31878,30415,77577157
1721940658,9150387,31909,30444,77802949
1721940659,9151467,31917,30451,77803925
1721940660,9155824,31944,30478,77817340
1721940661,9156092,31946,30479,77817760
1721940662,9158299,31964,30494,77819563
1721940663,9164246,31995,30522,78053329
1721940665,9168197,32013,30538,78057209
1721940666,9168957,32019,30543,78065761
1721940667,9172228,32032,30554,78069151
1721940668,9173349,32038,30559,78070041
1721940669,9176418,32067,30584,78293385
1721940670,9179780,32077,30594,78296682
1721940671,9180931,32088,30604,78305753
1721940672,9183679,32095,30611,78308692
1721940673,9188300,32117,30631,78313020
1721940674,9191846,32144,30655,78544408
1721940675,9193449,32158,30667,78545829
1721940676,9197349,32180,30689,78558746
1721940677,9200325,32190,30699,78560348
1721940678,9201675,32198,30706,78563130
1721940679,9207706,32233,30739,78789306
1721940680,9208145,32237,30741,78789831
1721940681,9209296,32248,30751,78798867
1721940682,9212044,32255,30758,78801806
1721940683,9216665,32277,30778,78806135
1721940684,9220746,32306,30804,79037807
1721940685,9223951,32318,30816,79041245
1721940686,9224645,32324,30821,79050882
1721940687,9227916,32337,30832,79054272
1721940688,9229494,32348,30842,79055679
1721940689,9235002,32377,30870,79281353
1721940690,9235925,32387,30879,79282452
1721940691,9239825,32409,30901,79294287
1721940692,9241047,32421,30912,79295620
1721940693,9244648,32432,30923,79299065
1721940694,9249318,32468,30955,79531284
1721940695,9252198,32477,30964,79534356
1721940696,9253349,32488,30974,79544510
1721940697,9256097,32495,30981,79547467
1721940698,9257675,32506,30991,79549539
1721940699,9263117,32534,31018,79774484
1721940700,9264176,32545,31027,79781429
1721940701,9267286,32554,31036,79786914
1721940702,9268574,32567,31046,79788163
1721940703,9272177,32578,31057,79791644
1721940704,9276860,32614,31087,80023695
1721940705,9280021,32626,31099,80032528
1721940706,9281751,32649,31119,80037778
1721940707,9284501,32654,31124,80040621
1721940708,9288561,32670,31140,80044547
1721940709,9291589,32694,31162,80267704
1721940710,9295459,32713,31177,80280348
1721940711,9295727,32715,31178,80280768
1721940712,9299497,32733,31193,80284488
1721940713,9302764,32758,31216,80507791
1721940714,9305288,32775,31228,80517463
1721940715,9308464,32786,31238,80528505
1721940716,9311671,32798,31249,80531895
1721940717,9311939,32800,31250,80532315
1721940718,9318211,32836,31284,80758618
1721940719,9319093,32841,31288,80759396
1721940720,9322990,32861,31308,80772332
1721940721,9323918,32873,31319,80773412
1721940722,9327754,32892,31334,80777132
1721940723,9332074,32922,31360,81008886
1721940724,9335895,32937,31375,81012664
1721940725,9336721,32945,31382,81021383
1721940726,9339928,32957,31394,81024821
1721940727,9341049,32963,31399,81025711
1721940728,9346468,32995,31427,81251431
1721940729,9347350,33000,31431,81252209
1721940730,9350983,33016,31446,81264834
1721940731,9351251,33018,31447,81265254
1721940732,9355940,33041,31465,81269414
1721940733,9359222,33064,31485,81500546
1721940734,9363109,33080,31499,81504258
1721940735,9364067,33090,31508,81513110
1721940736,9367934,33112,31529,81517124
1721940737,9369055,33118,31534,81518050
1721940738,9374342,33148,31562,81743718
1721940740,9375395,33155,31567,81744601
1721940741,9379094,33172,31581,81757159
1721940742,9379362,33174,31582,81757579
1721940743,9383985,33196,31601,81761805
1721940744,9387518,33223,31624,81993142
1721940745,9391339,33238,31638,81996854
1721940746,9392033,33244,31643,82005442
1721940747,9395306,33257,31654,82008796
1721940748,9396427,33263,31659,82009722
1721940749,9401846,33295,31688,82235455
1721940750,9402728,33301,31693,82236299
1721940751,9406691,33321,31716,82249433
1721940752,9407619,33333,31722,82250183
1721940753,9412176,33354,31743,82254541
1721940754,9416125,33381,31766,82486029
1721940755,9417048,33391,31773,82486960
1721940756,9420224,33402,31784,82498069
1721940757,9423497,33415,31795,82501459
1721940758,9424618,33421,31800,82502385
1721940759,9430849,33459,31835,82728672
1721940760,9431117,33461,31836,82729092
1721940761,9434816,33478,31851,82741698
1721940762,9436170,33492,31860,82742899
1721940763,9439773,33503,31871,82746344
1721940764,9444324,33537,31901,82978454
1721940765,9447140,33545,31909,82981477
1721940766,9448885,33565,31926,82991009
1721940767,9451965,33577,31938,82994278
1721940768,9453543,33588,31948,82995649
1721940769,9458855,33614,31972,83221113
1721940770,9459751,33623,31979,83222119
1721940771,9462927,33634,31989,83233161
1721940772,9464149,33646,32000,83234494
1721940773,9467752,33657,32010,83237873
1721940774,9472158,33689,32040,83469981
1721940775,9474908,33696,32046,83472854
1721940776,9476125,33708,32055,83482940
1721940777,9479143,33717,32062,83486251
1721940778,9482863,33730,32075,83488257
1721940779,9486297,33758,32100,83713340
1721940780,9487301,33768,32109,83719930
1721940781,9490792,33785,32126,83725943
1721940782,9494729,33807,32145,83728205
1721940783,9496079,33815,32152,83730986
1721940784,9500617,33849,32182,83963037
1721940785,9503925,33862,32195,83975398
1721940786,9504716,33870,32200,83976197
1721940787,9507466,33877,32207,83979136
1721940788,9512819,33908,32235,84204837
1721940789,9514554,33917,32243,84206121
1721940790,9518199,33933,32260,84220192
1721940791,9518467,33935,32261,84220612
1721940792,9522303,33954,32277,84224398
1721940793,9525504,33978,32299,84447645
1721940794,9528063,33995,32313,84457449
1721940795,9531437,34009,32327,84468756
1721940796,9535436,34033,32349,84472872
1721940797,9535704,34035,32350,84473292
1721940798,9541681,34068,32382,84697743
1721940799,9542792,34075,32388,84700376
1721940800,9546596,34093,32405,84713173
1721940801,9546864,34095,32406,84713593
1721940802,9550634,34113,32423,84717445
1721940803,9554822,34141,32447,84949076
1721940804,9558709,34157,32461,84952788
1721940805,9559403,34163,32466,84961376
1721940806,9560194,34171,32471,84962193
1721940807,9562944,34178,32478,84965132
1721940808,9569150,34213,32510,85191342
1721940809,9570032,34218,32514,85192120
1721940810,9571447,34233,32527,85201351
1721940811,9574923,34251,32545,85205016
1721940812,9578759,34270,32561,85208838
1721940813,9583145,34301,32588,85440656
1721940815,9587032,34317,32604,85444500
1721940816,9587792,34324,32610,85454202
1721940817,9591065,34337,32621,85457592
1721940818,9592186,34343,32626,85458482
1721940819,9597407,34372,32655,85684249
1721940820,9598289,34377,32659,85685027
1721940821,9601988,34394,32675,85696617
1721940822,9602256,34396,32676,85697037
1721940823,9604331,34412,32691,85698840
1721940824,9610292,34443,32719,85932614
1721940825,9614112,34458,32734,85936428
1721940826,9615004,34467,32742,85946262
1721940827,9619280,34494,32769,85950708
1721940828,9620401,34500,32774,85951634
1721940829,9625885,34533,32805,86177520
1721940830,9626767,34538,32809,86178298
1721940831,9627984,34550,32818,86187267
1721940832,9630733,34557,32825,86190206
1721940833,9635355,34579,32845,86194534
1721940834,9638888,34606,32868,86425871
1721940835,9642774,34622,32882,86429583
1721940836,9643468,34628,32887,86439254
1721940837,9646740,34641,32898,86442626
1721940838,9647861,34647,32903,86443552
1721940839,9653345,34680,32934,86669443
1721940840,9654684,34690,32943,86670702
1721940841,9658057,34704,32957,86682009
1721940842,9660005,34727,32979,86684032
1721940843,9663607,34738,32990,86687513
1721940844,9668211,34773,33021,86919664
1721940845,9670960,34780,33028,86922603
1721940846,9672111,34791,33038,86932721
1721940847,9674860,34798,33045,86935696
1721940848,9676438,34809,33055,86937067
1721940849,9681947,34838,33083,87162778
1721940850,9684813,34847,33091,87163811
1721940851,9686115,34858,33101,87176291
1721940852,9689721,34875,33114,87178157
1721940853,9691071,34883,33121,87180937
1721940854,9695622,34917,33154,87413202
1721940855,9698584,34926,33161,87421706
1721940856,9702267,34944,33177,87427787
1721940857,9703261,34957,33189,87428933
1721940858,9707157,34972,33202,87430939
1721940859,9710216,34995,33223,87655762
1721940860,9713914,35012,33238,87668388
1721940861,9714182,35014,33239,87668808
1721940862,9717885,35031,33256,87672660
1721940863,9721418,35058,33280,87904038
1721940864,9726157,35078,33299,87908322
1721940865,9726851,35084,33304,87916912
1721940866,9730057,35096,33316,87920350
1721940867,9730325,35098,33317,87920770
1721940868,9736530,35133,33351,88147074
1721940869,9737412,35138,33355,88147852
1721940870,9741110,35155,33370,88160459
1721940871,9741642,35161,33375,88161143
1721940872,9746137,35190,33400,88165523
1721940873,9750523,35221,33427,88397343
1721940874,9754343,35236,33442,88401121
1721940875,9755037,35242,33447,88409711
1721940876,9758309,35255,33458,88413065
1721940877,9758577,35257,33459,88413485
1721940878,9764914,35294,33494,88639830
1721940879,9765796,35299,33498,88640608
1721940880,9769494,35316,33513,88652132
1721940881,9769762,35318,33514,88652516
1721940882,9773531,35336,33530,88656338
1721940883,9777930,35367,33557,88888150
1721940884,9781816,35383,33571,88891862
1721940886,9782510,35389,33576,88901535
1721940887,9785980,35405,33592,88905219
1721940888,9786908,35417,33603,88906299
1721940889,9793113,35452,33635,89132445
1721940890,9793995,35457,33639,89133223
1721940891,9795212,35469,33648,89142191
1721940892,9797961,35476,33655,89145130
1721940893,9801730,35494,33671,89148952
1721940894,9806194,35526,33699,89380861
1721940895,9810080,35542,33713,89384573
1721940896,9810774,35548,33718,89394210