Time,val,ax
2024-07-17 21:35:45,2584576,10.75
2024-07-17 21:36:00,2584576,11.0
2024-07-17 21:36:15,573448192,11.25
2024-07-17 21:36:30,573448192,11.5
2024-07-17 21:36:45,883130368,11.75
2024-07-17 21:37:00,883130368,12.0
2024-07-17 21:37:15,883130368,12.25
2024-07-17 21:37:30,883130368,12.5
2024-07-17 21:37:45,883130368,12.75
2024-07-17 21:38:00,883130368,13.0
2024-07-17 21:38:15,883130368,13.25
2024-07-17 21:38:30,883130368,13.5
2024-07-17 21:38:45,883130368,13.75
2024-07-17 21:39:00,883130368,14.0
2024-07-17 21:39:15,883130368,14.25
2024-07-17 21:39:30,883130368,14.5
2024-07-17 21:39:45,883130368,14.75
2024-07-17 21:40:00,883130368,15.0
2024-07-17 21:40:15,883130368,15.25
2024-07-17 21:40:30,883130368,15.5
2024-07-17 21:40:45,883130368,15.75
2024-07-17 21:41:00,883130368,16.0
2024-07-17 21:41:15,883130368,16.25
2024-07-17 21:41:30,883130368,16.5
