{
  "status": "success",
  "data": {
    "resultType": "vector",
    "result": [
      {
        "metric": {
          "__name__": "kube_deployment_status_replicas",
          "container": "kube-state-metrics",
          "deployment": "tasks-solver-00001-deployment",
          "endpoint": "http",
          "instance": "10.233.65.114:8080",
          "job": "kube-state-metrics",
          "namespace": "default",
          "pod": "kube-prometheus-stack-kube-state-metrics-6dcd966b95-ff657",
          "service": "kube-prometheus-stack-kube-state-metrics"
        },
        "value": [1721135789.064, "0"]
      }
    ]
  }
}
